[{
	"name": "Headhunter",
	"label": "headhunter"
}, {
	"name": " HR Generalist",
	"label": "hr_generalist"
}, {
	"name": " HR Manager",
	"label": "hr_manager"
}, {
	"name": " HR Specialist",
	"label": "hr_specialist"
}, {
	"name": " Human Resources Generalist",
	"label": "human_resources_generalist"
}, {
	"name": " Human Resources Manager",
	"label": "human_resources_manager"
}, {
	"name": " Human Resources Specialist",
	"label": "human_resources_specialist"
}, {
	"name": " IT Recruiter",
	"label": "it_recruiter"
}, {
	"name": " Recruiter",
	"label": "recruiter"
}, {
	"name": " Recruiting Manager",
	"label": "recruiting_manager"
}, {
	"name": " Recruitment Specialist",
	"label": "recruitment_specialist"
}, {
	"name": " Researcher",
	"label": "researcher"
}, {
	"name": " Resource Manager",
	"label": "resource_manager"
}, {
	"name": " Talent Acquisition Recruiter",
	"label": "talent_acquisition_recruiter"
}, {
	"name": " Talent Acquisition Researcher",
	"label": "talent_acquisition_researcher"
}, {
	"name": " Talent Acquisition Specialist",
	"label": "talent_acquisition_specialist"
}, {
	"name": " Talent Management Specialist",
	"label": "talent_management_specialist"
}, {
	"name": " Talent Manager",
	"label": "talent_manager"
}, {
	"name": " Technical Recruiter",
	"label": "technical_recruiter"
}, {
	"name": " Technical Researcher",
	"label": "technical_researcher"
}, {
	"name": " Senior Headhunter",
	"label": "senior_headhunter"
}, {
	"name": " Senior HR Generalist",
	"label": "senior_hr_generalist"
}, {
	"name": " Senior HR Manager",
	"label": "senior_hr_manager"
}, {
	"name": " Senior HR Specialist",
	"label": "senior_hr_specialist"
}, {
	"name": " Senior Human Resources Generalist",
	"label": "senior_human_resources_generalist"
}, {
	"name": " Senior Human Resources Manager",
	"label": "senior_human_resources_manager"
}, {
	"name": " Senior Human Resources Specialist",
	"label": "senior_human_resources_specialist"
}, {
	"name": " Senior IT Recruiter",
	"label": "senior_it_recruiter"
}, {
	"name": " Senior Resource Manager",
	"label": "senior_resource_manager"
}, {
	"name": " Senior Recruiter",
	"label": "senior_recruiter"
}, {
	"name": " Senior Recruiting Manager",
	"label": "senior_recruiting_manager"
}, {
	"name": " Senior Recruitment Specialist",
	"label": "senior_recruitment_specialist"
}, {
	"name": " Senior Recruitment Team Lead",
	"label": "senior_recruitment_team_lead"
}, {
	"name": " Senior Researcher",
	"label": "senior_researcher"
}, {
	"name": " Senior Talent Acquisition Recruiter",
	"label": "senior_talent_acquisition_recruiter"
}, {
	"name": " Senior Talent Acquisition Researcher",
	"label": "senior_talent_acquisition_researcher"
}, {
	"name": " Senior Talent Acquisition Specialist",
	"label": "senior_talent_acquisition_specialist"
}, {
	"name": " Senior Talent Management Specialist",
	"label": "senior_talent_management_specialist"
}, {
	"name": " Senior Talent Manager",
	"label": "senior_talent_manager"
}, {
	"name": " Senior Technical Recruiter",
	"label": "senior_technical_recruiter"
}, {
	"name": " Senior Technical Researcher",
	"label": "senior_technical_researcher"
}, {
	"name": " Junior Headhunter",
	"label": "junior_headhunter"
}, {
	"name": " Junior HR Generalist",
	"label": "junior_hr_generalist"
}, {
	"name": " Junior HR Manager",
	"label": "junior_hr_manager"
}, {
	"name": " Junior HR Specialist",
	"label": "junior_hr_specialist"
}, {
	"name": " Junior Human Resources Generalist",
	"label": "junior_human_resources_generalist"
}, {
	"name": " Junior Human Resources Manager",
	"label": "junior_human_resources_manager"
}, {
	"name": " Junior Human Resources Specialist",
	"label": "junior_human_resources_specialist"
}, {
	"name": " Junior IT Recruiter",
	"label": "junior_it_recruiter"
}, {
	"name": " Junior Resource Manager",
	"label": "junior_resource_manager"
}, {
	"name": " Junior Recruiter",
	"label": "junior_recruiter"
}, {
	"name": " Junior Recruiting Manager",
	"label": "junior_recruiting_manager"
}, {
	"name": " Junior Recruitment Specialist",
	"label": "junior_recruitment_specialist"
}, {
	"name": " Junior Recruitment Team Lead",
	"label": "junior_recruitment_team_lead"
}, {
	"name": " Junior Researcher",
	"label": "junior_researcher"
}, {
	"name": " Junior Talent Acquisition Recruiter",
	"label": "junior_talent_acquisition_recruiter"
}, {
	"name": " Junior Talent Acquisition Researcher",
	"label": "junior_talent_acquisition_researcher"
}, {
	"name": " Junior Talent Acquisition Specialist",
	"label": "junior_talent_acquisition_specialist"
}, {
	"name": " Junior Talent Management Specialist",
	"label": "junior_talent_management_specialist"
}, {
	"name": " Junior Talent Manager",
	"label": "junior_talent_manager"
}, {
	"name": " Junior Technical Recruiter",
	"label": "junior_technical_recruiter"
}, {
	"name": " Junior Technical Researcher",
	"label": "junior_technical_researcher"
}, {
	"name": " Assistant to Headhunter",
	"label": "assistant_to_headhunter"
}, {
	"name": " Assistant to HR Generalist",
	"label": "assistant_to_hr_generalist"
}, {
	"name": " Assistant to HR Manager",
	"label": "assistant_to_hr_manager"
}, {
	"name": " Assistant to HR Specialist",
	"label": "assistant_to_hr_specialist"
}, {
	"name": " Assistant to Human Resources Generalist",
	"label": "assistant_to_human_resources_generalist"
}, {
	"name": " Assistant to Human Resources Manager",
	"label": "assistant_to_human_resources_manager"
}, {
	"name": " Assistant to Human Resources Specialist",
	"label": "assistant_to_human_resources_specialist"
}, {
	"name": " Assistant to IT Recruiter",
	"label": "assistant_to_it_recruiter"
}, {
	"name": " Assistant to Resource Manager",
	"label": "assistant_to_resource_manager"
}, {
	"name": " Assistant to Recruiter",
	"label": "assistant_to_recruiter"
}, {
	"name": " Assistant to Recruiting Manager",
	"label": "assistant_to_recruiting_manager"
}, {
	"name": " Assistant to Recruitment Specialist",
	"label": "assistant_to_recruitment_specialist"
}, {
	"name": " Assistant to Recruitment Team Lead",
	"label": "assistant_to_recruitment_team_lead"
}, {
	"name": " Assistant to Researcher",
	"label": "assistant_to_researcher"
}, {
	"name": " Assistant to Talent Acquisition Recruiter",
	"label": "assistant_to_talent_acquisition_recruiter"
}, {
	"name": " Assistant to Talent Acquisition Researcher",
	"label": "assistant_to_talent_acquisition_researcher"
}, {
	"name": " Assistant to Talent Acquisition Specialist",
	"label": "assistant_to_talent_acquisition_specialist"
}, {
	"name": " Assistant to Talent Management Specialist",
	"label": "assistant_to_talent_management_specialist"
}, {
	"name": " Assistant to Talent Manager",
	"label": "assistant_to_talent_manager"
}, {
	"name": " Assistant to Technical Recruiter",
	"label": "assistant_to_technical_recruiter"
}, {
	"name": " Assistant to Technical Researcher",
	"label": "assistant_to_technical_researcher"
}, {
	"name": " Assistant to Chief Executive Officer",
	"label": "assistant_to_chief_executive_officer"
}, {
	"name": " Assistant to Chief Operating Officer",
	"label": "assistant_to_chief_operating_officer"
}, {
	"name": " Assistant to Chief Financial Officer",
	"label": "assistant_to_chief_financial_officer"
}, {
	"name": " Assistant to Director of Recruiting Department",
	"label": "assistant_to_director_of_recruiting_department"
}, {
	"name": " Assistant to Executive Recruiter",
	"label": "assistant_to_executive_recruiter"
}, {
	"name": " Assistant to Head of Human Resources",
	"label": "assistant_to_head_of_human_resources"
}, {
	"name": " Assistant to Head of Recruitment",
	"label": "assistant_to_head_of_recruitment"
}, {
	"name": " Assistant to Head of Recruiting Department",
	"label": "assistant_to_head_of_recruiting_department"
}, {
	"name": " Assistant to HR Business Partner",
	"label": "assistant_to_hr_business_partner"
}
]