[
    {
        "sub": "Полная занятость",
        "label": "full"
    },
    {
        "sub": "Неполная занятость",
        "label": "part"
    },
    {
        "sub": "Удаленная работа",
        "label": "dist"
    },
    {
        "sub": "Стажировка",
        "label": "project"
    }
]
